#FIG 3.2  Produced by xfig version 3.2.5b
Landscape
Center
Inches
Letter  
100.00
Single
-2
1200 2
6 2550 5550 4650 6075
2 2 0 1 0 4 51 -1 38 0.000 0 0 -1 0 0 5
	 2550 6075 4650 6075 4650 5550 2550 5550 2550 6075
4 0 0 50 -1 0 16 0.0000 4 255 525 3300 5925 heap\001
-6
6 2550 6075 4650 6600
2 2 0 1 0 4 51 -1 38 0.000 0 0 -1 0 0 5
	 2550 6600 4650 6600 4650 6075 2550 6075 2550 6600
4 0 0 50 -1 0 16 0.0000 4 195 465 3300 6375 data\001
-6
6 2550 6600 4650 7125
2 2 0 1 0 4 51 -1 38 0.000 0 0 -1 0 0 5
	 2550 7125 4650 7125 4650 6600 2550 6600 2550 7125
4 0 0 50 -1 0 16 0.0000 4 165 435 3300 6975 text\001
-6
6 2550 3375 4650 3900
2 2 0 1 0 4 51 -1 38 0.000 0 0 -1 0 0 5
	 2550 3900 4650 3900 4650 3375 2550 3375 2550 3900
4 0 0 50 -1 0 16 0.0000 4 195 570 3300 3750 stack\001
-6
2 2 0 1 0 7 51 -1 18 0.000 0 0 -1 0 0 5
	 2550 3900 4650 3900 4650 5550 2550 5550 2550 3900
2 1 0 5 0 7 50 -1 -1 0.000 0 0 -1 1 0 2
	1 1 1.00 210.00 210.00
	 3525 5550 3525 4950
2 1 0 5 0 7 50 -1 -1 0.000 0 0 -1 1 0 2
	1 1 1.00 210.00 210.00
	 3525 3900 3525 4500
4 0 0 50 -1 0 16 0.0000 4 135 480 4725 3525 max\001
4 0 0 50 -1 0 16 0.0000 4 195 135 4725 7125 0\001
