#FIG 3.2  Produced by xfig version 3.2.5b
Landscape
Center
Inches
Letter  
100.00
Single
-2
1200 2
2 2 0 3 0 1 51 -1 38 0.000 0 0 -1 0 0 5
	 7950 5475 9825 5475 9825 8175 7950 8175 7950 5475
2 2 0 2 0 7 50 -1 20 0.000 0 0 -1 0 0 5
	 7950 6075 9825 6075 9825 6525 7950 6525 7950 6075
2 1 0 3 0 7 50 -1 -1 0.000 0 0 -1 1 0 4
	1 1 1.00 120.00 120.00
	 9825 5700 10200 5700 10200 6225 9825 6225
2 1 0 3 0 7 50 -1 -1 0.000 0 0 -1 1 0 4
	1 1 1.00 120.00 120.00
	 9825 6375 10200 6375 10200 6900 9825 6900
2 2 0 3 0 4 50 -1 38 0.000 0 0 -1 0 0 5
	 7950 7575 9825 7575 9825 8175 7950 8175 7950 7575
2 2 0 3 0 4 50 -1 38 0.000 0 0 -1 0 0 5
	 7950 5475 9825 5475 9825 6075 7950 6075 7950 5475
2 2 0 3 0 4 50 -1 38 0.000 0 0 -1 0 0 5
	 7950 6525 9825 6525 9825 7125 7950 7125 7950 6525
4 0 0 48 -1 0 12 0.0000 4 150 585 8550 6375 shared\001
4 0 0 50 -1 0 12 0.0000 4 150 105 10050 6675 2\001
4 0 0 50 -1 0 12 0.0000 4 150 105 10050 6000 1\001
4 0 0 48 -1 0 12 0.0000 4 150 540 8625 7950 kernel\001
4 0 0 48 -1 0 12 0.0000 4 195 885 8400 5850 process A\001
4 0 0 48 -1 0 12 0.0000 4 195 855 8400 6900 process B\001
